module gitlab.com/kevinmorales/nectar-rest-api

go 1.18

require (
	github.com/aws/aws-sdk-go v1.17.7
	github.com/go-playground/validator/v10 v10.11.0
	github.com/golang-jwt/jwt v3.2.2+incompatible
	github.com/golang-migrate/migrate/v4 v4.15.2
	github.com/gorilla/mux v1.8.0
	github.com/jmoiron/sqlx v1.3.5
	github.com/lib/pq v1.10.5
	github.com/satori/go.uuid v1.2.0
	github.com/sirupsen/logrus v1.8.1
	github.com/stretchr/testify v1.7.1
)

require (
	github.com/davecgh/go-spew v1.1.1 // indirect
	github.com/go-playground/locales v0.14.0 // indirect
	github.com/go-playground/universal-translator v0.18.0 // indirect
	github.com/go-resty/resty/v2 v2.7.0 // indirect
	github.com/h2non/bimg v1.1.9 // indirect
	github.com/hashicorp/errwrap v1.1.0 // indirect
	github.com/hashicorp/go-multierror v1.1.1 // indirect
	github.com/jmespath/go-jmespath v0.4.0 // indirect
	github.com/joho/godotenv v1.4.0 // indirect
	github.com/leodido/go-urn v1.2.1 // indirect
	github.com/pmezard/go-difflib v1.0.0 // indirect
	go.uber.org/atomic v1.7.0 // indirect
	golang.org/x/crypto v0.0.0-20211215153901-e495a2d5b3d3 // indirect
	golang.org/x/net v0.0.0-20220225172249-27dd8689420f // indirect
	golang.org/x/sys v0.0.0-20220317061510-51cd9980dadf // indirect
	golang.org/x/text v0.3.7 // indirect
	gopkg.in/yaml.v3 v3.0.0-20210107192922-496545a6307b // indirect
)
